{
  "id": "terms-list-paged",
  "title": "경제용어 목록 조회",
  "description": "등록된 모든 경제용어 목록을 페이지네이션과 함께 조회합니다.",
  "method": "GET",
  "endpoint": "/api/terms/list-paged",
  "headers": [
    {
      "name": "Accept",
      "value": "application/json",
      "required": false,
      "description": "응답 형식 지정"
    }
  ],
  "parameters": [
    {
      "name": "page ",
      "type": "integer",
      "required": false,
      "description": "페이지 번호"
    },
    {
      "name": "size",
      "type": "integer",
      "required": false,
      "description": "페이지당 항목 수 (1-100)"
    }
  ],
  "requestExample": null,
  "responses": [
    {
      "status": "200 OK",
      "description": "경제용어 목록 조회 성공"
    },
    {
      "status": "500 Internal Server Error",
      "description": "서버 오류 발생"
    }
  ],
  "responseExample": {
    "filter": {
      "subject": ""
    },
    "pagination": {
      "pageSize": 20,
      "totalPages": 77,
      "hasPrevious": false,
      "currentPage": 1,
      "hasNext": true,
      "totalCount": 1521
    },
    "data": [
      {
        "id": 1,
        "keyword": "경제",
        "title": "1인당 국민소득",
        "definition": "국민소득을 총국민 수로 나눈 값. 해당 국가의 소득 수준을 보여주는 가장 대표적인 지표이다."
      },
      {
        "id": 2,
        "keyword": "금융",
        "title": "2차 시장(Secondary Market)",
        "definition": "2차 시장은 처음 발행된 증권, 채권 등이 거래되는 발행시장과 구분되며, 이미 발행된 주식들의 거래가 이루어지는 유통시장을 뜻한다. 국내에서는 유가증권시장, 코스닥, 코넥스, 프리보드 시장 등이 2차시장에 해당하며, 외국의 경우?New York Stock Exachange(NYSE), NASDAQ 등이 있다. 2차 시장에서는 주식이 가장 보편적으로 거래 되며, 주식 외에도 뮤추얼 펀드, 채권과 같은 상품 등도 거래된다. 패니매(Fanni Mae), 프레디맥(Freddie Mac)과 같은 기관들은 2차 시장에서 모기지 관련 상품을 거래하며 모기지 증권을 만든다. 1차 시장(Primary Market)에서는 처음 발행된 주식이나 채권을 등의 거래가 이루어지며, 흔히 알려진 거래 형태는 IPO(Initial Public Offering)이다. 이 때 거래된 증권을 후에 재판매하기 위한 거래 시장이 2차 시장이다. 각각의 거래에서 발생한 수익은 거래 당사자에게 돌아가며, 1차 시장에서 IPO 에 참여한 투자은행, 주식 발행 주체가 되는 회사 등은 2차 시장에서의 거래에 관여하지 않는다."
      },
      {
        "id": 3,
        "keyword": "금융",
        "title": "5일선",
        "definition": "주가의 평균치를 이어놓은 이동평균선에서 사용되는 말로, 5일선이란 5일동안의 평균주가를 이어놓은 선을 가리킨다. 10일동안의 평균주가를 이어놓은 선은 10일선, 20일동안의 평균주가를 이어놓은 선은 20일선이라 부른다. 이 5일선, 10일선 등의 이동평균선은 단기, 중기, 장기별 시세흐름을 파악하기 쉽고 다음 주가를 예측하기 위해 많이 사용되고 있다."
      },
      {
        "id": 4,
        "keyword": "경제",
        "title": "70의 법칙",
        "definition": "70의 법칙은 경제 성장, 인구 증가, 저축 증가 등을 계산할 때 복리의 효과를 이해하는 데 쓰인다. 이 법칙에 따르면 경제가 매년 x%씩 성장할 경우 경제 규모가 두 배가 되는 데 필요한 기간이 70/x년이 된다. 예를 들어 경제가 매년 1%씩 성장하면 경제 규모가 두 배가 되는 데는 70년이 걸리고, 매년 2%씩 성장하면 경제 규모가 두 배가 되는 데는 35년이 걸린다는 것이다. 이 법칙은 인구 증가와 저축 증가에도 적용된다. 경제 성장과 마찬가지로 인구가 두 배로 증가하는 데는 인구가 매년 1%씩 성장할 때는 70년이 걸리고, 매년 2%씩 성장할 때는 35년이 걸린다. 저축의 증가를 계산할 때도 마찬가지로 저축이 두 배로 증가하는 데는 연 이자율이 1%일 경우 70년이 걸리고 연 이자율이 2%일 경우에는 35년이 걸린다. 이 법칙은 72의 법칙이라고 불리기도 한다. 매년 증가율이 3% 또는 4%일 경우 70을 그 증가율로 나누면 정수가 아니라 소수가 나오기 때문에 70 대신에 72를 이용하면 두 배가 되는 데 걸리는 기간을 정수로 쉽게 계산할 수 있기 때문이다. 이를 이용하면 경제가 두 배로 성장하는 데는 경제 성장률이 3%일 때는 24년, 경제 성장률이 4%일 때는 18년이 걸린다고 쉽게 계산할 수 있다."
      },
      {
        "id": 5,
        "keyword": "금융",
        "title": "ABCP(Asset Backed Commercial Paper)",
        "definition": "Asset Backed Commercial Paper의 약어. 유동화전문회사(SPC)가 매출채권, 리스채권, 회사채 등 자산을 담보로 발행하는 기업어음(CP)이다. 일반적으로 SPC는 유동화 자산을 기초로 회사채 형태의 자산유동화증권(ABS)을 발행하는데 비해 ABCP는 회사채가 아닌 CP형태로 ABS를 발행하는 것이다. 유동화자산보다 만기가 짧은 ABS를 발행한 뒤 해당 ABS 만기시점부터 유동화자산의 만기때까지 기발행된 ABS(자산담보부증권)을 상환하는 조건으로 주기적으로 CP를 차환발행함으로써 ABS발행보다 자금조달비용을 줄일 수 있어 기업 입장에서 유리하다. 한편, 투자자 입장에선 소비자금융채권등 비교적 안정적인 자산을 근거로 발행되는데다 3개월짜리 단기상품이기 때문에 안정성과 유동성을 동시에 확보할 수 있다. 부동산 관련 ABCP도 많이 발행되는 편인데 이는 건물 지을 땅, 건설사 보증 등 부동산 관련 자산을 담보로 발행되는 기업어음을 말한다."
      },
      {
        "id": 6,
        "keyword": "금융",
        "title": "AMA(Auto Management Account)",
        "definition": "고객이 설정한 조건에 따라 상대적으로 고금리를 주는 예금이나 증권사로 자동이체·관리해주는 금융상품의 한 종류다. 또한 반대로 기본계좌에서의 지급요청 발생 시 설정된 금액만큼 기본계좌로 다시 자동이체도 된다. 편리성과 고금리의 수익성을 갖춘 상품이라 할 수 있다. 금융사는 금융상품 거래 때의 판매수수료가 수익으로 연결이 되나 증권사 CMA의 인기로 은행 입장에서는 금융상품 판매 수수료를 챙길 수단 자체가 부족해졌다. 이에 대응하기 위해 은행에서 AMA라는 상품이 출시됐다."
      },
      {
        "id": 7,
        "keyword": "금융",
        "title": "At The Money(ATM, 앳 더 머니)",
        "definition": "‘앳 더 머니’ 상황은 옵션의 행사가격이 기초자산의 시장 가격과 동일할 때를 가리킨다. 풋옵션과 콜옵션 모두 동시에 ‘앳 더 머니’ 상황에 처할 수 있다. ‘앳 더 머니’ 상태에서 옵션은 ‘내재 가치(intrinsic value)를 가지지 않으나, 만기일 이전까지 시간적 가치(time value)는 가진다고 볼 수 있다. 대체로 ‘앳 더 머니’ 상태에서 옵션 거래가 활발한 경향을 보인다."
      },
      {
        "id": 11,
        "keyword": "금융",
        "title": "Barclays Global Aggregate",
        "definition": "대표적인 해외채권지수로 국내 연기금들이 해외채권 투자의 벤치마크로 가장 많이 이용하고 있다. 1973년 만들어진 지수는 리먼 브라더스, 바클레이즈를 거쳐 2016년 블룸버그에 인수되었고 블룸버그-바클레이즈 글로벌 종합지수는 JP모건 신흥국 국채지수, 씨티 세계국채지수와 함께 세계 3대 채권 지수이다."
      },
      {
        "id": 12,
        "keyword": "금융",
        "title": "Behavioral Finance",
        "definition": "행동경제학(Behavioral Economics)의 하위 분야라고 할 수 있는 Behavioral Finance는 주식 가격이 높은 폭으로 변동하는 것과 같은 주식 시장의 이상 현상에 대해 심리학적 관점에서 분석을 시도한다. 이러한 접근 방식의 목적은 사람들이 왜 그와 같은 재무적 결정을 내리는가에 대한 원인을 규명하고 이해하는 것이다. Behavioral Finance 에서는 정보 구조와 시장 참여자의 특성이 시장 활동의 전체적 결과 뿐만 아니라 개인의 투자 결정에도 영향을 미친다고 가정한다."
      },
      {
        "id": 8,
        "keyword": "금융",
        "title": "BIC",
        "definition": "Bank Identifier Code로 은행인식코드를 말한다. 자동화 처리를 목적으로 금융기관을 코드화하여 SWIFT라는 표준화기구에서 금융기관 앞에 부여한 고유번호이다. 즉 해외 송금을 위해서는 외국의 지급은행명을 알아야 하는데 그 지급은행을 코드화시킨 것이다."
      },
      {
        "id": 9,
        "keyword": "금융",
        "title": "BIS(Bank for International Settlements, 국제결제은행)",
        "definition": "국제결제은행(BIS)은 1930년 1월 헤이그협정에 의거 설립된 중앙은행간 협력기구로 현존하는 국제금융기구 중 가장 오래된 기구이다. 제1차 세계대전 이전부터 유럽을 중심으로 중앙은행간 협력증진을 위한 다자간기구 설립 논의가 있었으나 제1차 세계대전의 발발로 진전이 이루어지지는 못하였다. 종전 후 유럽경제 복구 및 독일의 전쟁배상금 지급 문제가 국제경제의 주요 현안과제로 대두되었다. 이 문제의 당사국인 벨기에ㆍ프랑스ㆍ독일ㆍ이탈리아ㆍ일본ㆍ영국 등 6개국은 거듭된 회의 끝에 1930년 1월 20일 네덜란드의 헤이그에서 독일의 전쟁배상금 문제 해결을 위한 헤이그협정을 체결하고 배상금결제 전담기구로서 국제결제은행(BIS)의 설립을 결정하였다. BIS는 스위스 바젤에 본부를 두고 있다. BIS 정관 제3조는 BIS의 설립목적을 “중앙은행간 협력을 증진하고 국제금융거래의 원활화를 위한 편의를 제공하며 국제결제의무와 관련하여 수탁자(trustee) 및 대리인(agent)으로서의 역할을 수행하는데 있다.”고 규정하고 있다. BIS는 독일의 전쟁배상금 지급문제를 계기로 설립된 점을 반영, 초기에는 주로 결제기관으로서의 역할 수행에 중점을 두고 운영되었지만 시대적 상황에 따라 점차 그 기능이 변화하여 갔다. 1988년에는 바젤합의를 통해 은행 시스템의 건전성 확보와 국제적 감독 기준 마련을 목적으로 하는 'BIS 기준'이라는 자기자본규제안을 발표하였다. BIS 자기자본비율은 위험가중자산에 대한 자기자본 비율을 의미하여 BIS 기준은 위험가중자산의 최소 8%를 자기자본으로 보유토록 유도하고 있다. 국제결제은행은 현재 주로 중앙은행간 협력체로서의 기능 수행에 중점을 두고 있으며 국제통화통화협력을 위한 양대기구로서 IMF와 긴밀한 협력관계를 유지하고 있다."
      },
      {
        "id": 10,
        "keyword": "경제",
        "title": "BOP(Base of Economic Pyramid)",
        "definition": "최하 소득계층. 원래 의미는 피라미드의 밑바닥이며, 소득분포에서 제일 아래 위치한 빈곤층을 지칭한다. BOP계층은 세계 인구의 상당수를 차지하며 소비시장의 규모도 매우 커 잠재력이 풍부해 BOP 마케팅이 신흥시장 개척수단으로 주목 받고 있다."
      },
      {
        "id": 13,
        "keyword": "금융",
        "title": "CAMEL지수(카멜지수)",
        "definition": "카멜지수는 자본적정성(Capital Adequacy), 자산건전성(Asset Quality), 경영능력(Management), 수익성(Earnings), 유동성(Liquidity) 이렇게 5가지 항목의 앞글자를 따서 만든 지수다. 은행검사시스템으로 은행의 건전성, 경영실태를 평가하는데 사용된다. 미국의 FRB, FDIC 등 연방은행감독기관이 1978년부터 실시해왔다. ※카엘(CAEL)지수: 카멜지수의 간이계량평가지표. 카멜지수에서 경영능력을 뺀 나머지 네 항목으로 구성되어 있다."
      },
      {
        "id": 14,
        "keyword": "금융",
        "title": "CAPM",
        "definition": "자본자산 가격결정 모형(Capital Asset Pricing Model)의 약자로 주식이나 채권 등의 자본자산들의 기대수익률과 위험과의 관계를 도출해내는 모형이다. 즉, 투자자들이 투자활동을 해서 시장이 균형상태에 있을 때, 주식이나 채권 등의 자본자산의 균형가격이 어떻게 결정되는지를 설명해주는 모형이라 할 수 있다."
      },
      {
        "id": 15,
        "keyword": "금융",
        "title": "CB(Credit Bureau)",
        "definition": "개인신용 관련 정보를 토대로 신용도를 평가하는 기관. 정보를 취합하고 평가하는 데 그치지 않고 직접 신용등급을 매기며, 이 신용등급은 개인이 신용카드를 발급받거나 금융회사에서 대출을 받을 때 활용된다. 우리나라에서는 NICE, KCB 등이 대표적이다."
      },
      {
        "id": 16,
        "keyword": "금융",
        "title": "CDO",
        "definition": "Collateralized debt obligation(부채담보부증권)의 약자로 회사채나 금융기관의 대출채권, 여러 개의 주택담보대출을 묶어 만든 신용파생상품의 일종이다. 금융기관은 자신들이 보유한 대출채권이나 회사채 등을 특수목적기구(SPV:Special Purpose Vehicle)에 이전하고 이를 담보로 SPV가 증권(CDO)을 발행한다. 이 때 자산의 소유권은 원래의 자산 보유자로부터 SPV에 완전히 이전된다. CDO발행 이전에는 담보물로부터 발생하는 이자 등의 수입은 원 자산보유자인 은행과 금융기관에 속했으나 CDO발행 이후 이 수입들이 SPV에 귀속된다. SPV는 담보물을 재분류하여 선순위채권과 후순위채권으로 구조화한 CDO를 발행하여 투자자를 모집한다. SPV는 발행한 증권에 대해 정기적으로 이자를 지급하고 원리금을 상환한다. 하지만 미국에서는 서브프라임 모기지 사태가 불거진 후, 모기지 대출채권을 담보로한 CDO 가격이 폭락하면서 그 파급효과가 관련 파생상품들로 급속히 확장되면서 글로벌 금융위기를 초래한 주범으로 인식되기도 했다."
      },
      {
        "id": 17,
        "keyword": "금융",
        "title": "CDS 프리미엄",
        "definition": "대출이나 채권 투자에도 부도, 파산, 지급불이행 등 신용자산의 가치가 감소하는 위험이 존재하는데 CDS(credit default swap) 또는 신용디폴트스왑은 이러한 손실을 다른 투자자가 대신 보상해주는 파생상품을 일컫는다. CDS는 위와 같은 신용사건 발생 시 원금 상환을 보장받게 해 주는데 이러한 과정에서 보험료 성격의 일정한 수수료를 지불하며 이를 CDS프리미엄 혹은 CDS스프레드라 부른다. CDS는 이와 같이 신용위험을 본래의 자산으로부터 분리시키는 기능을 하는 스왑상품이다. 수수료인 CDS 프리미엄은 분기별로 지급되는 것이 일반적이며 bp(basis point)라는 단위를 통해 나타낸다. 1bp는 0.01%와 같다. 손해보험에 가입할 때 사고가 일어날 확률이 높을수록 보험료가 비싸지는 것처럼 채권의 발행한 기관이나 국가의 신용위험도가 높아질수록 CDS프리미엄은 상승한다."
      },
      {
        "id": 18,
        "keyword": "금융",
        "title": "CD금리",
        "definition": "CD(Certificate of Deposit)란 시장에서 양도가 가능한 정기예금증서를 말한다. 은행은 자금조달을 위해 CD를 발행하고 투자자는 투자의 목적으로 정기예금증서의 하나인 CD를 매입하게 된다. 여타 정기예금증서와 달리 투자자는 매입한 CD를 만기 전에 다른 투자자에게 팔 수 있다. 한국수출입은행을 제외한 모든 은행, 즉 한국은행에 예금지급준비금을 예치할 의무가 있는 시중은행, 지방은행, 특수은행, 외국계 은행지점 등이 CD를 발행하여 자금을 조달할 수 있다. 만기는 30일 이상이며 주로 91일(3개월물)이나 181일(6개월물) 금리가 대표적이다. CD는 매매를 위해 은행의 승인을 받지 않아도 되며 특별한 매매절차도 없다. 따라서 단기간에 정기예금 수준의 이자를 받으면서도 필요 시 매매를 통해 현금화할 수 있다. 다만 CD는 예금자보호법의 적용을 받지 않는다는 단점을 가지고 있다. CD는 만기까지의 이자를 할인해서 발행하기 때문에 고객은 할인액을 차감한 금액으로 CD를 사고 만기에는 액면금액을 받게 된다. CD의 가격이 하락한다는 것은 만기에 동일한 액면금액을 받기 위해 이전보다 더 낮은 가격으로 살 수 있다는 것을 의미하며, 이는 CD 금리 또는 수익률이 상승한다는 것과 마찬가지이다. 한편 우리나라 은행들의 경우 변동금리형 주택담보대출에 적용하는 금리를 ‘CD 금리+R’의 형태로 정하고 있는 경우가 많다. 따라서 CD 금리의 변화는 변동금리형 주택담보대출에 영향을 미친다. 만일 CD 금리가 상승할 경우, 주택담보대출금리도 동반 상승하여 변동금리로 은행에서 돈을 빌린 사람들의 이자 부담이 높아진다."
      },
      {
        "id": 19,
        "keyword": "금융",
        "title": "CFaR(cashflow at risk)",
        "definition": "금융기관이나 기업의 현금흐름의 리스크를 측정하는 지표이다. 리스크는 미래의 불확실성을 말하는데, 예를들어 현금흐름이 일정수준 이하가 되면 어려움에 직면하는 회사가 있다면 이 회사는 이 리스크를 관리하게 된다. CFaR은 이러한 리스크를 측정하는 수치로, 주어진 신뢰수준하에서 일정기간 동안 발생할 수 있는 최악의 현금흐름을 말한다. 예를들어 95% 신뢰수준에서 1년 CFaR이 10억 이라면 이는 1년 동안 현금흐름이 10억보다 작아서 어려움을 겪게될 확률이 5%임을 의미한다."
      },
      {
        "id": 20,
        "keyword": "금융",
        "title": "CMA",
        "definition": "CMA(Cash Management Account)는 증권회사가 금융시장에 직접 참여하기 어려운 고객을 위해 예탁금을 MMF, RP, 기업어음 등의 금융자산에 투자하여 그 수익을 고객에게 돌려주는 금융상품을 말한다. 은행의 보통예금처럼 입출금이 자유롭고 증권사가 책임지고 운영하므로 안정성이 높다."
      }
    ],
    "success": true,
    "message": "목록 조회가 완료되었습니다."
  },
  "curlExample": "curl -X GET \"http://localhost:8080/api/terms/list\""
}
